Single_Cycle_CPU/pipeline_cpu_tb.vcd
$date
	Tue Feb 18 17:01:54 2025
$end
$version
	Icarus Verilog
$end
$timescale
	1ps
$end
$scope module cpu_tb $end
$var wire 32 ! x31 [31:0] $end
$var wire 32 " pc [31:0] $end
$var wire 32 # iaddr [31:0] $end
$var reg 1 $ clk $end
$var reg 1 % reset $end
$scope module dut $end
$var wire 1 $ clk $end
$var wire 1 % reset $end
$var wire 32 & x31 [31:0] $end
$var wire 4 ' we_S [3:0] $end
$var wire 32 ( rv2 [31:0] $end
$var wire 32 ) rv1 [31:0] $end
$var wire 32 * regdata_R [31:0] $end
$var wire 32 + regdata_L [31:0] $end
$var wire 32 , regdata_I [31:0] $end
$var wire 32 - idata [31:0] $end
$var wire 32 . iaddr_val [31:0] $end
$var wire 32 / drdata [31:0] $end
$var reg 32 0 daddr [31:0] $end
$var reg 32 1 dwdata [31:0] $end
$var reg 32 2 iaddr [31:0] $end
$var reg 32 3 imm [31:0] $end
$var reg 32 4 pc [31:0] $end
$var reg 5 5 rd [4:0] $end
$var reg 32 6 regdata [31:0] $end
$var reg 5 7 rs1 [4:0] $end
$var reg 5 8 rs2 [4:0] $end
$var reg 4 9 we [3:0] $end
$var reg 1 : wer $end
$scope module b1 $end
$var wire 32 ; iaddr [31:0] $end
$var wire 32 < imm [31:0] $end
$var wire 32 = tmp1 [31:0] $end
$var wire 32 > tmp2 [31:0] $end
$var wire 32 ? instr [31:0] $end
$var wire 32 @ in2 [31:0] $end
$var wire 32 A in1 [31:0] $end
$var reg 32 B out [31:0] $end
$upscope $end
$scope module d1 $end
$var wire 1 $ clk $end
$var wire 32 C daddr [31:0] $end
$var wire 32 D dwdata [31:0] $end
$var wire 4 E we [3:0] $end
$var wire 32 F drdata [31:0] $end
$var wire 32 G add3 [31:0] $end
$var wire 32 H add2 [31:0] $end
$var wire 32 I add1 [31:0] $end
$var wire 32 J add0 [31:0] $end
$var parameter 32 K MEM_SIZE $end
$upscope $end
$scope module i1 $end
$var wire 32 L imm [31:0] $end
$var wire 32 M tmp1 [31:0] $end
$var wire 12 N tmp2 [11:0] $end
$var wire 32 O instr [31:0] $end
$var wire 32 P in1 [31:0] $end
$var reg 32 Q out [31:0] $end
$upscope $end
$scope module im2 $end
$var wire 32 R iaddr [31:0] $end
$var wire 32 S idata [31:0] $end
$upscope $end
$scope module l1 $end
$var wire 32 T daddr [31:0] $end
$var wire 32 U drdata [31:0] $end
$var wire 32 V instr [31:0] $end
$var reg 32 W offset [31:0] $end
$var reg 32 X out [31:0] $end
$upscope $end
$scope module r1 $end
$var wire 32 Y instr [31:0] $end
$var wire 32 Z tmp1 [31:0] $end
$var wire 32 [ tmp2 [31:0] $end
$var wire 32 \ in2 [31:0] $end
$var wire 32 ] in1 [31:0] $end
$var reg 32 ^ out [31:0] $end
$upscope $end
$scope module reg1 $end
$var wire 1 $ clk $end
$var wire 5 _ rd [4:0] $end
$var wire 32 ` regdata [31:0] $end
$var wire 5 a rs1 [4:0] $end
$var wire 5 b rs2 [4:0] $end
$var wire 32 c rv1 [31:0] $end
$var wire 32 d rv2 [31:0] $end
$var wire 1 : wer $end
$var wire 32 e x31 [31:0] $end
$var integer 32 f i [31:0] $end
$upscope $end
$scope module s1 $end
$var wire 32 g daddr [31:0] $end
$var wire 32 h instr [31:0] $end
$var reg 4 i we [3:0] $end
$upscope $end
$upscope $end
$upscope $end
$enddefinitions $end
$comment Show the parameter values. $end
$dumpall
b10000000 K
$end
#0
$dumpvars
bx i
b1010110011 h
bx g
b11111 f
b0 e
b0 d
b0 c
b0 b
b0 a
b0 `
b101 _
b0 ^
b0 ]
b0 \
b0 [
b0 Z
b1010110011 Y
bx X
b0xx000 W
b1010110011 V
bx U
bx T
b1010110011 S
b0 R
bx Q
b0 P
b1010110011 O
bx N
b0 M
bx L
bx J
bx I
bx H
bx G
bx F
b0 E
bx D
bx C
bx B
b0 A
b0 @
b1010110011 ?
b0 >
b0 =
bx <
b0 ;
1:
b0 9
b0 8
b0 7
b0 6
b101 5
b100 4
bx 3
b0 2
bx 1
bx 0
bx /
bx .
b1010110011 -
bx ,
bx +
b0 *
b0 )
b0 (
bx '
b0 &
1%
0$
b0 #
b100 "
b0 !
$end
#5000
b0 "
b0 4
1$
#10000
0$
#15000
1$
#20000
0$
#25000
1$
#30000
0$
0%
#35000
b100 "
b100 4
1$
#40000
0$
#45000
b1 N
b101 .
b101 B
b1 ,
b1 Q
b1 6
b1 `
b1 3
b1 <
b1 L
b110 5
b110 _
b1000 "
b1000 4
b100000000001100010011 -
b100000000001100010011 ?
b100000000001100010011 O
b100000000001100010011 S
b100000000001100010011 V
b100000000001100010011 Y
b100000000001100010011 h
b100 #
b100 2
b100 ;
b100 R
1$
#50000
0$
#55000
b0 N
b1000 .
b1000 B
b0 ,
b0 Q
b1000 6
b1000 `
b0 3
b0 <
b0 L
b11100 5
b11100 _
b1100 "
b1100 4
b111000010111 -
b111000010111 ?
b111000010111 O
b111000010111 S
b111000010111 V
b111000010111 Y
b111000010111 h
b1000 #
b1000 2
b1000 ;
b1000 R
1$
#60000
0$
#65000
b10000 .
b10000 B
b1000 ,
b1000 Q
b1000 *
b1000 ^
b1000 6
b1000 `
b1000 Z
b1000 M
b1000 =
b1000 )
b1000 A
b1000 P
b1000 ]
b1000 c
b11100 7
b11100 a
b10000 "
b10000 4
b11100000111000010011 -
b11100000111000010011 ?
b11100000111000010011 O
b11100000111000010011 S
b11100000111000010011 V
b11100000111000010011 Y
b11100000111000010011 h
b1100 #
b1100 2
b1100 ;
b1100 R
1$
#70000
0$
#75000
b110 +
b110 X
b1000 J
b1001 I
b1010 H
b110 /
b110 F
b110 U
b1011 G
b0 ,
b0 Q
b0 W
b0 *
b0 ^
b1111 '
b1111 i
b110 6
b110 `
b1000 0
b1000 C
b1000 T
b1000 g
b10100 "
b10100 4
b11100010111000000011 -
b11100010111000000011 ?
b11100010111000000011 O
b11100010111000000011 S
b11100010111000000011 V
b11100010111000000011 Y
b11100010111000000011 h
b10000 #
b10000 2
b10000 ;
b10000 R
1$
#80000
0$
#85000
b1000 N
b11000 .
b11000 B
b1100 '
b1100 i
0:
b1000 3
b1000 <
b1000 L
b101 7
b101 a
b11000 "
b11000 4
b101001010001100011 -
b101001010001100011 ?
b101001010001100011 O
b101001010001100011 S
b101001010001100011 V
b101001010001100011 Y
b101001010001100011 h
b10100 #
b10100 2
b10100 ;
b10100 R
b100 6
b100 `
b0 +
b0 X
b100 /
b100 F
b100 U
b100 J
b101 I
b110 H
b111 G
b10000 W
b110 0
b110 C
b110 T
b110 g
b0 Z
b0 M
b0 =
b0 )
b0 A
b0 P
b0 ]
b0 c
1$
#90000
0$
#95000
b111111101000 N
b0 .
b0 B
b11100 6
b11100 `
1:
b11111111111111111111111111101000 3
b11111111111111111111111111101000 <
b11111111111111111111111111101000 L
b0 5
b0 _
b0 "
b0 4
b11111110100111111111000001101111 -
b11111110100111111111000001101111 ?
b11111110100111111111000001101111 O
b11111110100111111111000001101111 S
b11111110100111111111000001101111 V
b11111110100111111111000001101111 Y
b11111110100111111111000001101111 h
b11000 #
b11000 2
b11000 ;
b11000 R
1$
#100000
0$
#105000
b11111111111111111111111111101000 .
b11111111111111111111111111101000 B
b11111111111111111111111111101000 ,
b11111111111111111111111111101000 Q
b100 '
b100 i
b0 6
b0 `
b0 7
b0 a
b101 5
b101 _
b100 "
b100 4
b1010110011 -
b1010110011 ?
b1010110011 O
b1010110011 S
b1010110011 V
b1010110011 Y
b1010110011 h
b0 #
b0 2
b0 ;
b0 R
1$
#110000
0$
#115000
b1 N
b101 .
b101 B
b1 ,
b1 Q
b1 6
b1 `
b1 3
b1 <
b1 L
b110 5
b110 _
b1000 "
b1000 4
b100000000001100010011 -
b100000000001100010011 ?
b100000000001100010011 O
b100000000001100010011 S
b100000000001100010011 V
b100000000001100010011 Y
b100000000001100010011 h
b100 #
b100 2
b100 ;
b100 R
1$
#120000
0$
#125000
b0 N
b1000 .
b1000 B
b0 ,
b0 Q
b1000 6
b1000 `
b0 3
b0 <
b0 L
b11100 5
b11100 _
b1100 "
b1100 4
b111000010111 -
b111000010111 ?
b111000010111 O
b111000010111 S
b111000010111 V
b111000010111 Y
b111000010111 h
b1000 #
b1000 2
b1000 ;
b1000 R
1$
#130000
0$
#135000
b10000 .
b10000 B
b1000 ,
b1000 Q
b1000 *
b1000 ^
b1000 6
b1000 `
b1000 Z
b1000 M
b1000 =
b1000 )
b1000 A
b1000 P
b1000 ]
b1000 c
b11100 7
b11100 a
b10000 "
b10000 4
b11100000111000010011 -
b11100000111000010011 ?
b11100000111000010011 O
b11100000111000010011 S
b11100000111000010011 V
b11100000111000010011 Y
b11100000111000010011 h
b1100 #
b1100 2
b1100 ;
b1100 R
1$
#140000
0$
#145000
b110 /
b110 F
b110 U
b1000 J
b1001 I
b1010 H
b1011 G
b0 ,
b0 Q
b110 +
b110 X
b0 W
b0 *
b0 ^
b1111 '
b1111 i
b110 6
b110 `
b1000 0
b1000 C
b1000 T
b1000 g
b10100 "
b10100 4
b11100010111000000011 -
b11100010111000000011 ?
b11100010111000000011 O
b11100010111000000011 S
b11100010111000000011 V
b11100010111000000011 Y
b11100010111000000011 h
b10000 #
b10000 2
b10000 ;
b10000 R
1$
#150000
0$
#155000
b1000 N
b11000 .
b11000 B
b1100 '
b1100 i
0:
b1000 3
b1000 <
b1000 L
b101 7
b101 a
b11000 "
b11000 4
b101001010001100011 -
b101001010001100011 ?
b101001010001100011 O
b101001010001100011 S
b101001010001100011 V
b101001010001100011 Y
b101001010001100011 h
b10100 #
b10100 2
b10100 ;
b10100 R
b100 6
b100 `
b0 +
b0 X
b100 /
b100 F
b100 U
b100 J
b101 I
b110 H
b111 G
b10000 W
b110 0
b110 C
b110 T
b110 g
b0 Z
b0 M
b0 =
b0 )
b0 A
b0 P
b0 ]
b0 c
1$
#160000
0$
#165000
b111111101000 N
b0 .
b0 B
b11100 6
b11100 `
1:
b11111111111111111111111111101000 3
b11111111111111111111111111101000 <
b11111111111111111111111111101000 L
b0 5
b0 _
b0 "
b0 4
b11111110100111111111000001101111 -
b11111110100111111111000001101111 ?
b11111110100111111111000001101111 O
b11111110100111111111000001101111 S
b11111110100111111111000001101111 V
b11111110100111111111000001101111 Y
b11111110100111111111000001101111 h
b11000 #
b11000 2
b11000 ;
b11000 R
1$
#170000
0$
#175000
b11111111111111111111111111101000 .
b11111111111111111111111111101000 B
b11111111111111111111111111101000 ,
b11111111111111111111111111101000 Q
b100 '
b100 i
b0 6
b0 `
b0 7
b0 a
b101 5
b101 _
b100 "
b100 4
b1010110011 -
b1010110011 ?
b1010110011 O
b1010110011 S
b1010110011 V
b1010110011 Y
b1010110011 h
b0 #
b0 2
b0 ;
b0 R
1$
#180000
0$
#185000
b1 N
b101 .
b101 B
b1 ,
b1 Q
b1 6
b1 `
b1 3
b1 <
b1 L
b110 5
b110 _
b1000 "
b1000 4
b100000000001100010011 -
b100000000001100010011 ?
b100000000001100010011 O
b100000000001100010011 S
b100000000001100010011 V
b100000000001100010011 Y
b100000000001100010011 h
b100 #
b100 2
b100 ;
b100 R
1$
#190000
0$
#195000
b0 N
b1000 .
b1000 B
b0 ,
b0 Q
b1000 6
b1000 `
b0 3
b0 <
b0 L
b11100 5
b11100 _
b1100 "
b1100 4
b111000010111 -
b111000010111 ?
b111000010111 O
b111000010111 S
b111000010111 V
b111000010111 Y
b111000010111 h
b1000 #
b1000 2
b1000 ;
b1000 R
1$
#200000
0$
#205000
b10000 .
b10000 B
b1000 ,
b1000 Q
b1000 *
b1000 ^
b1000 6
b1000 `
b1000 Z
b1000 M
b1000 =
b1000 )
b1000 A
b1000 P
b1000 ]
b1000 c
b11100 7
b11100 a
b10000 "
b10000 4
b11100000111000010011 -
b11100000111000010011 ?
b11100000111000010011 O
b11100000111000010011 S
b11100000111000010011 V
b11100000111000010011 Y
b11100000111000010011 h
b1100 #
b1100 2
b1100 ;
b1100 R
1$
#210000
0$
#215000
b110 /
b110 F
b110 U
b1000 J
b1001 I
b1010 H
b1011 G
b0 ,
b0 Q
b110 +
b110 X
b0 W
b0 *
b0 ^
b1111 '
b1111 i
b110 6
b110 `
b1000 0
b1000 C
b1000 T
b1000 g
b10100 "
b10100 4
b11100010111000000011 -
b11100010111000000011 ?
b11100010111000000011 O
b11100010111000000011 S
b11100010111000000011 V
b11100010111000000011 Y
b11100010111000000011 h
b10000 #
b10000 2
b10000 ;
b10000 R
1$
#220000
0$
#225000
b1000 N
b11000 .
b11000 B
b1100 '
b1100 i
0:
b1000 3
b1000 <
b1000 L
b101 7
b101 a
b11000 "
b11000 4
b101001010001100011 -
b101001010001100011 ?
b101001010001100011 O
b101001010001100011 S
b101001010001100011 V
b101001010001100011 Y
b101001010001100011 h
b10100 #
b10100 2
b10100 ;
b10100 R
b100 6
b100 `
b0 +
b0 X
b100 /
b100 F
b100 U
b100 J
b101 I
b110 H
b111 G
b10000 W
b110 0
b110 C
b110 T
b110 g
b0 Z
b0 M
b0 =
b0 )
b0 A
b0 P
b0 ]
b0 c
1$
#230000
0$
#235000
b111111101000 N
b0 .
b0 B
b11100 6
b11100 `
1:
b11111111111111111111111111101000 3
b11111111111111111111111111101000 <
b11111111111111111111111111101000 L
b0 5
b0 _
b0 "
b0 4
b11111110100111111111000001101111 -
b11111110100111111111000001101111 ?
b11111110100111111111000001101111 O
b11111110100111111111000001101111 S
b11111110100111111111000001101111 V
b11111110100111111111000001101111 Y
b11111110100111111111000001101111 h
b11000 #
b11000 2
b11000 ;
b11000 R
1$
#240000
0$
#245000
b11111111111111111111111111101000 .
b11111111111111111111111111101000 B
b11111111111111111111111111101000 ,
b11111111111111111111111111101000 Q
b100 '
b100 i
b0 6
b0 `
b0 7
b0 a
b101 5
b101 _
b100 "
b100 4
b1010110011 -
b1010110011 ?
b1010110011 O
b1010110011 S
b1010110011 V
b1010110011 Y
b1010110011 h
b0 #
b0 2
b0 ;
b0 R
1$
#250000
0$
#255000
b1 N
b101 .
b101 B
b1 ,
b1 Q
b1 6
b1 `
b1 3
b1 <
b1 L
b110 5
b110 _
b1000 "
b1000 4
b100000000001100010011 -
b100000000001100010011 ?
b100000000001100010011 O
b100000000001100010011 S
b100000000001100010011 V
b100000000001100010011 Y
b100000000001100010011 h
b100 #
b100 2
b100 ;
b100 R
1$
#260000
0$
#265000
b0 N
b1000 .
b1000 B
b0 ,
b0 Q
b1000 6
b1000 `
b0 3
b0 <
b0 L
b11100 5
b11100 _
b1100 "
b1100 4
b111000010111 -
b111000010111 ?
b111000010111 O
b111000010111 S
b111000010111 V
b111000010111 Y
b111000010111 h
b1000 #
b1000 2
b1000 ;
b1000 R
1$
#270000
0$
#275000
b10000 .
b10000 B
b1000 ,
b1000 Q
b1000 *
b1000 ^
b1000 6
b1000 `
b1000 Z
b1000 M
b1000 =
b1000 )
b1000 A
b1000 P
b1000 ]
b1000 c
b11100 7
b11100 a
b10000 "
b10000 4
b11100000111000010011 -
b11100000111000010011 ?
b11100000111000010011 O
b11100000111000010011 S
b11100000111000010011 V
b11100000111000010011 Y
b11100000111000010011 h
b1100 #
b1100 2
b1100 ;
b1100 R
1$
#280000
0$
#285000
b110 /
b110 F
b110 U
b1000 J
b1001 I
b1010 H
b1011 G
b0 ,
b0 Q
b110 +
b110 X
b0 W
b0 *
b0 ^
b1111 '
b1111 i
b110 6
b110 `
b1000 0
b1000 C
b1000 T
b1000 g
b10100 "
b10100 4
b11100010111000000011 -
b11100010111000000011 ?
b11100010111000000011 O
b11100010111000000011 S
b11100010111000000011 V
b11100010111000000011 Y
b11100010111000000011 h
b10000 #
b10000 2
b10000 ;
b10000 R
1$
#290000
0$
#295000
b1000 N
b11000 .
b11000 B
b1100 '
b1100 i
0:
b1000 3
b1000 <
b1000 L
b101 7
b101 a
b11000 "
b11000 4
b101001010001100011 -
b101001010001100011 ?
b101001010001100011 O
b101001010001100011 S
b101001010001100011 V
b101001010001100011 Y
b101001010001100011 h
b10100 #
b10100 2
b10100 ;
b10100 R
b100 6
b100 `
b0 +
b0 X
b100 /
b100 F
b100 U
b100 J
b101 I
b110 H
b111 G
b10000 W
b110 0
b110 C
b110 T
b110 g
b0 Z
b0 M
b0 =
b0 )
b0 A
b0 P
b0 ]
b0 c
1$
#300000
0$
#305000
b111111101000 N
b0 .
b0 B
b11100 6
b11100 `
1:
b11111111111111111111111111101000 3
b11111111111111111111111111101000 <
b11111111111111111111111111101000 L
b0 5
b0 _
b0 "
b0 4
b11111110100111111111000001101111 -
b11111110100111111111000001101111 ?
b11111110100111111111000001101111 O
b11111110100111111111000001101111 S
b11111110100111111111000001101111 V
b11111110100111111111000001101111 Y
b11111110100111111111000001101111 h
b11000 #
b11000 2
b11000 ;
b11000 R
1$
#310000
0$
#315000
b11111111111111111111111111101000 .
b11111111111111111111111111101000 B
b11111111111111111111111111101000 ,
b11111111111111111111111111101000 Q
b100 '
b100 i
b0 6
b0 `
b0 7
b0 a
b101 5
b101 _
b100 "
b100 4
b1010110011 -
b1010110011 ?
b1010110011 O
b1010110011 S
b1010110011 V
b1010110011 Y
b1010110011 h
b0 #
b0 2
b0 ;
b0 R
1$
#320000
0$
#325000
b1 N
b101 .
b101 B
b1 ,
b1 Q
b1 6
b1 `
b1 3
b1 <
b1 L
b110 5
b110 _
b1000 "
b1000 4
b100000000001100010011 -
b100000000001100010011 ?
b100000000001100010011 O
b100000000001100010011 S
b100000000001100010011 V
b100000000001100010011 Y
b100000000001100010011 h
b100 #
b100 2
b100 ;
b100 R
1$
#330000
0$
#335000
b0 N
b1000 .
b1000 B
b0 ,
b0 Q
b1000 6
b1000 `
b0 3
b0 <
b0 L
b11100 5
b11100 _
b1100 "
b1100 4
b111000010111 -
b111000010111 ?
b111000010111 O
b111000010111 S
b111000010111 V
b111000010111 Y
b111000010111 h
b1000 #
b1000 2
b1000 ;
b1000 R
1$
#340000
0$
#345000
b10000 .
b10000 B
b1000 ,
b1000 Q
b1000 *
b1000 ^
b1000 6
b1000 `
b1000 Z
b1000 M
b1000 =
b1000 )
b1000 A
b1000 P
b1000 ]
b1000 c
b11100 7
b11100 a
b10000 "
b10000 4
b11100000111000010011 -
b11100000111000010011 ?
b11100000111000010011 O
b11100000111000010011 S
b11100000111000010011 V
b11100000111000010011 Y
b11100000111000010011 h
b1100 #
b1100 2
b1100 ;
b1100 R
1$
#350000
0$
#355000
b110 /
b110 F
b110 U
b1000 J
b1001 I
b1010 H
b1011 G
b0 ,
b0 Q
b110 +
b110 X
b0 W
b0 *
b0 ^
b1111 '
b1111 i
b110 6
b110 `
b1000 0
b1000 C
b1000 T
b1000 g
b10100 "
b10100 4
b11100010111000000011 -
b11100010111000000011 ?
b11100010111000000011 O
b11100010111000000011 S
b11100010111000000011 V
b11100010111000000011 Y
b11100010111000000011 h
b10000 #
b10000 2
b10000 ;
b10000 R
1$
#360000
0$
#365000
b1000 N
b11000 .
b11000 B
b1100 '
b1100 i
0:
b1000 3
b1000 <
b1000 L
b101 7
b101 a
b11000 "
b11000 4
b101001010001100011 -
b101001010001100011 ?
b101001010001100011 O
b101001010001100011 S
b101001010001100011 V
b101001010001100011 Y
b101001010001100011 h
b10100 #
b10100 2
b10100 ;
b10100 R
b100 6
b100 `
b0 +
b0 X
b100 /
b100 F
b100 U
b100 J
b101 I
b110 H
b111 G
b10000 W
b110 0
b110 C
b110 T
b110 g
b0 Z
b0 M
b0 =
b0 )
b0 A
b0 P
b0 ]
b0 c
1$
#370000
0$
#375000
b111111101000 N
b0 .
b0 B
b11100 6
b11100 `
1:
b11111111111111111111111111101000 3
b11111111111111111111111111101000 <
b11111111111111111111111111101000 L
b0 5
b0 _
b0 "
b0 4
b11111110100111111111000001101111 -
b11111110100111111111000001101111 ?
b11111110100111111111000001101111 O
b11111110100111111111000001101111 S
b11111110100111111111000001101111 V
b11111110100111111111000001101111 Y
b11111110100111111111000001101111 h
b11000 #
b11000 2
b11000 ;
b11000 R
1$
#380000
0$
#385000
b11111111111111111111111111101000 .
b11111111111111111111111111101000 B
b11111111111111111111111111101000 ,
b11111111111111111111111111101000 Q
b100 '
b100 i
b0 6
b0 `
b0 7
b0 a
b101 5
b101 _
b100 "
b100 4
b1010110011 -
b1010110011 ?
b1010110011 O
b1010110011 S
b1010110011 V
b1010110011 Y
b1010110011 h
b0 #
b0 2
b0 ;
b0 R
1$
#390000
0$
#395000
b1 N
b101 .
b101 B
b1 ,
b1 Q
b1 6
b1 `
b1 3
b1 <
b1 L
b110 5
b110 _
b1000 "
b1000 4
b100000000001100010011 -
b100000000001100010011 ?
b100000000001100010011 O
b100000000001100010011 S
b100000000001100010011 V
b100000000001100010011 Y
b100000000001100010011 h
b100 #
b100 2
b100 ;
b100 R
1$
#400000
0$
#405000
b0 N
b1000 .
b1000 B
b0 ,
b0 Q
b1000 6
b1000 `
b0 3
b0 <
b0 L
b11100 5
b11100 _
b1100 "
b1100 4
b111000010111 -
b111000010111 ?
b111000010111 O
b111000010111 S
b111000010111 V
b111000010111 Y
b111000010111 h
b1000 #
b1000 2
b1000 ;
b1000 R
1$
#410000
0$
#415000
b10000 .
b10000 B
b1000 ,
b1000 Q
b1000 *
b1000 ^
b1000 6
b1000 `
b1000 Z
b1000 M
b1000 =
b1000 )
b1000 A
b1000 P
b1000 ]
b1000 c
b11100 7
b11100 a
b10000 "
b10000 4
b11100000111000010011 -
b11100000111000010011 ?
b11100000111000010011 O
b11100000111000010011 S
b11100000111000010011 V
b11100000111000010011 Y
b11100000111000010011 h
b1100 #
b1100 2
b1100 ;
b1100 R
1$
#420000
0$
#425000
b110 /
b110 F
b110 U
b1000 J
b1001 I
b1010 H
b1011 G
b0 ,
b0 Q
b110 +
b110 X
b0 W
b0 *
b0 ^
b1111 '
b1111 i
b110 6
b110 `
b1000 0
b1000 C
b1000 T
b1000 g
b10100 "
b10100 4
b11100010111000000011 -
b11100010111000000011 ?
b11100010111000000011 O
b11100010111000000011 S
b11100010111000000011 V
b11100010111000000011 Y
b11100010111000000011 h
b10000 #
b10000 2
b10000 ;
b10000 R
1$
#430000
0$
#435000
b1000 N
b11000 .
b11000 B
b1100 '
b1100 i
0:
b1000 3
b1000 <
b1000 L
b101 7
b101 a
b11000 "
b11000 4
b101001010001100011 -
b101001010001100011 ?
b101001010001100011 O
b101001010001100011 S
b101001010001100011 V
b101001010001100011 Y
b101001010001100011 h
b10100 #
b10100 2
b10100 ;
b10100 R
b100 6
b100 `
b0 +
b0 X
b100 /
b100 F
b100 U
b100 J
b101 I
b110 H
b111 G
b10000 W
b110 0
b110 C
b110 T
b110 g
b0 Z
b0 M
b0 =
b0 )
b0 A
b0 P
b0 ]
b0 c
1$
#440000
0$
#445000
b111111101000 N
b0 .
b0 B
b11100 6
b11100 `
1:
b11111111111111111111111111101000 3
b11111111111111111111111111101000 <
b11111111111111111111111111101000 L
b0 5
b0 _
b0 "
b0 4
b11111110100111111111000001101111 -
b11111110100111111111000001101111 ?
b11111110100111111111000001101111 O
b11111110100111111111000001101111 S
b11111110100111111111000001101111 V
b11111110100111111111000001101111 Y
b11111110100111111111000001101111 h
b11000 #
b11000 2
b11000 ;
b11000 R
1$
#450000
0$
#455000
b11111111111111111111111111101000 .
b11111111111111111111111111101000 B
b11111111111111111111111111101000 ,
b11111111111111111111111111101000 Q
b100 '
b100 i
b0 6
b0 `
b0 7
b0 a
b101 5
b101 _
b100 "
b100 4
b1010110011 -
b1010110011 ?
b1010110011 O
b1010110011 S
b1010110011 V
b1010110011 Y
b1010110011 h
b0 #
b0 2
b0 ;
b0 R
1$
#460000
0$
#465000
b1 N
b101 .
b101 B
b1 ,
b1 Q
b1 6
b1 `
b1 3
b1 <
b1 L
b110 5
b110 _
b1000 "
b1000 4
b100000000001100010011 -
b100000000001100010011 ?
b100000000001100010011 O
b100000000001100010011 S
b100000000001100010011 V
b100000000001100010011 Y
b100000000001100010011 h
b100 #
b100 2
b100 ;
b100 R
1$
#470000
0$
#475000
b0 N
b1000 .
b1000 B
b0 ,
b0 Q
b1000 6
b1000 `
b0 3
b0 <
b0 L
b11100 5
b11100 _
b1100 "
b1100 4
b111000010111 -
b111000010111 ?
b111000010111 O
b111000010111 S
b111000010111 V
b111000010111 Y
b111000010111 h
b1000 #
b1000 2
b1000 ;
b1000 R
1$
#480000
0$
#485000
b10000 .
b10000 B
b1000 ,
b1000 Q
b1000 *
b1000 ^
b1000 6
b1000 `
b1000 Z
b1000 M
b1000 =
b1000 )
b1000 A
b1000 P
b1000 ]
b1000 c
b11100 7
b11100 a
b10000 "
b10000 4
b11100000111000010011 -
b11100000111000010011 ?
b11100000111000010011 O
b11100000111000010011 S
b11100000111000010011 V
b11100000111000010011 Y
b11100000111000010011 h
b1100 #
b1100 2
b1100 ;
b1100 R
1$
#490000
0$
#495000
b110 /
b110 F
b110 U
b1000 J
b1001 I
b1010 H
b1011 G
b0 ,
b0 Q
b110 +
b110 X
b0 W
b0 *
b0 ^
b1111 '
b1111 i
b110 6
b110 `
b1000 0
b1000 C
b1000 T
b1000 g
b10100 "
b10100 4
b11100010111000000011 -
b11100010111000000011 ?
b11100010111000000011 O
b11100010111000000011 S
b11100010111000000011 V
b11100010111000000011 Y
b11100010111000000011 h
b10000 #
b10000 2
b10000 ;
b10000 R
1$
#500000
0$
#505000
b1000 N
b11000 .
b11000 B
b1100 '
b1100 i
0:
b1000 3
b1000 <
b1000 L
b101 7
b101 a
b11000 "
b11000 4
b101001010001100011 -
b101001010001100011 ?
b101001010001100011 O
b101001010001100011 S
b101001010001100011 V
b101001010001100011 Y
b101001010001100011 h
b10100 #
b10100 2
b10100 ;
b10100 R
b100 6
b100 `
b0 +
b0 X
b100 /
b100 F
b100 U
b100 J
b101 I
b110 H
b111 G
b10000 W
b110 0
b110 C
b110 T
b110 g
b0 Z
b0 M
b0 =
b0 )
b0 A
b0 P
b0 ]
b0 c
1$
#510000
0$
#515000
b111111101000 N
b0 .
b0 B
b11100 6
b11100 `
1:
b11111111111111111111111111101000 3
b11111111111111111111111111101000 <
b11111111111111111111111111101000 L
b0 5
b0 _
b0 "
b0 4
b11111110100111111111000001101111 -
b11111110100111111111000001101111 ?
b11111110100111111111000001101111 O
b11111110100111111111000001101111 S
b11111110100111111111000001101111 V
b11111110100111111111000001101111 Y
b11111110100111111111000001101111 h
b11000 #
b11000 2
b11000 ;
b11000 R
1$
#520000
0$
#525000
b11111111111111111111111111101000 .
b11111111111111111111111111101000 B
b11111111111111111111111111101000 ,
b11111111111111111111111111101000 Q
b100 '
b100 i
b0 6
b0 `
b0 7
b0 a
b101 5
b101 _
b100 "
b100 4
b1010110011 -
b1010110011 ?
b1010110011 O
b1010110011 S
b1010110011 V
b1010110011 Y
b1010110011 h
b0 #
b0 2
b0 ;
b0 R
1$
#530000
0$
#535000
b1 N
b101 .
b101 B
b1 ,
b1 Q
b1 6
b1 `
b1 3
b1 <
b1 L
b110 5
b110 _
b1000 "
b1000 4
b100000000001100010011 -
b100000000001100010011 ?
b100000000001100010011 O
b100000000001100010011 S
b100000000001100010011 V
b100000000001100010011 Y
b100000000001100010011 h
b100 #
b100 2
b100 ;
b100 R
1$
#540000
0$
#545000
b0 N
b1000 .
b1000 B
b0 ,
b0 Q
b1000 6
b1000 `
b0 3
b0 <
b0 L
b11100 5
b11100 _
b1100 "
b1100 4
b111000010111 -
b111000010111 ?
b111000010111 O
b111000010111 S
b111000010111 V
b111000010111 Y
b111000010111 h
b1000 #
b1000 2
b1000 ;
b1000 R
1$
#550000
0$
#555000
b10000 .
b10000 B
b1000 ,
b1000 Q
b1000 *
b1000 ^
b1000 6
b1000 `
b1000 Z
b1000 M
b1000 =
b1000 )
b1000 A
b1000 P
b1000 ]
b1000 c
b11100 7
b11100 a
b10000 "
b10000 4
b11100000111000010011 -
b11100000111000010011 ?
b11100000111000010011 O
b11100000111000010011 S
b11100000111000010011 V
b11100000111000010011 Y
b11100000111000010011 h
b1100 #
b1100 2
b1100 ;
b1100 R
1$
#560000
0$
#565000
b110 /
b110 F
b110 U
b1000 J
b1001 I
b1010 H
b1011 G
b0 ,
b0 Q
b110 +
b110 X
b0 W
b0 *
b0 ^
b1111 '
b1111 i
b110 6
b110 `
b1000 0
b1000 C
b1000 T
b1000 g
b10100 "
b10100 4
b11100010111000000011 -
b11100010111000000011 ?
b11100010111000000011 O
b11100010111000000011 S
b11100010111000000011 V
b11100010111000000011 Y
b11100010111000000011 h
b10000 #
b10000 2
b10000 ;
b10000 R
1$
#570000
0$
#575000
b1000 N
b11000 .
b11000 B
b1100 '
b1100 i
0:
b1000 3
b1000 <
b1000 L
b101 7
b101 a
b11000 "
b11000 4
b101001010001100011 -
b101001010001100011 ?
b101001010001100011 O
b101001010001100011 S
b101001010001100011 V
b101001010001100011 Y
b101001010001100011 h
b10100 #
b10100 2
b10100 ;
b10100 R
b100 6
b100 `
b0 +
b0 X
b100 /
b100 F
b100 U
b100 J
b101 I
b110 H
b111 G
b10000 W
b110 0
b110 C
b110 T
b110 g
b0 Z
b0 M
b0 =
b0 )
b0 A
b0 P
b0 ]
b0 c
1$
#580000
0$
#585000
b111111101000 N
b0 .
b0 B
b11100 6
b11100 `
1:
b11111111111111111111111111101000 3
b11111111111111111111111111101000 <
b11111111111111111111111111101000 L
b0 5
b0 _
b0 "
b0 4
b11111110100111111111000001101111 -
b11111110100111111111000001101111 ?
b11111110100111111111000001101111 O
b11111110100111111111000001101111 S
b11111110100111111111000001101111 V
b11111110100111111111000001101111 Y
b11111110100111111111000001101111 h
b11000 #
b11000 2
b11000 ;
b11000 R
1$
#590000
0$
