Single_Cycle_CPU/pipeline_cpu_tb.vcd
$date
	Mon Mar  3 14:07:48 2025
$end
$version
	Icarus Verilog
$end
$timescale
	1ps
$end
$scope module cpu_tb $end
$var wire 32 ! x31 [31:0] $end
$var wire 32 " pc [31:0] $end
$var wire 32 # iaddr [31:0] $end
$var reg 1 $ clk $end
$var reg 1 % reset $end
$scope module dut $end
$var wire 1 $ clk $end
$var wire 1 % reset $end
$var wire 32 & x31 [31:0] $end
$var wire 4 ' we_S [3:0] $end
$var wire 32 ( rv2 [31:0] $end
$var wire 32 ) rv1 [31:0] $end
$var wire 32 * regdata_R [31:0] $end
$var wire 32 + regdata_L [31:0] $end
$var wire 32 , regdata_I [31:0] $end
$var wire 32 - idata [31:0] $end
$var wire 32 . iaddr_val [31:0] $end
$var wire 32 / drdata [31:0] $end
$var reg 32 0 daddr [31:0] $end
$var reg 32 1 dwdata [31:0] $end
$var reg 32 2 iaddr [31:0] $end
$var reg 32 3 imm [31:0] $end
$var reg 32 4 pc [31:0] $end
$var reg 5 5 rd [4:0] $end
$var reg 32 6 regdata [31:0] $end
$var reg 5 7 rs1 [4:0] $end
$var reg 5 8 rs2 [4:0] $end
$var reg 4 9 we [3:0] $end
$var reg 1 : wer $end
$scope module b1 $end
$var wire 32 ; iaddr [31:0] $end
$var wire 32 < imm [31:0] $end
$var wire 32 = tmp1 [31:0] $end
$var wire 32 > tmp2 [31:0] $end
$var wire 32 ? instr [31:0] $end
$var wire 32 @ in2 [31:0] $end
$var wire 32 A in1 [31:0] $end
$var reg 32 B out [31:0] $end
$upscope $end
$scope module d1 $end
$var wire 1 $ clk $end
$var wire 32 C daddr [31:0] $end
$var wire 32 D dwdata [31:0] $end
$var wire 4 E we [3:0] $end
$var wire 32 F drdata [31:0] $end
$var wire 32 G add3 [31:0] $end
$var wire 32 H add2 [31:0] $end
$var wire 32 I add1 [31:0] $end
$var wire 32 J add0 [31:0] $end
$var parameter 32 K MEM_SIZE $end
$upscope $end
$scope module i1 $end
$var wire 32 L imm [31:0] $end
$var wire 32 M tmp1 [31:0] $end
$var wire 12 N tmp2 [11:0] $end
$var wire 32 O instr [31:0] $end
$var wire 32 P in1 [31:0] $end
$var reg 32 Q out [31:0] $end
$upscope $end
$scope module im2 $end
$var wire 32 R iaddr [31:0] $end
$var wire 32 S idata [31:0] $end
$upscope $end
$scope module l1 $end
$var wire 32 T daddr [31:0] $end
$var wire 32 U drdata [31:0] $end
$var wire 32 V instr [31:0] $end
$var reg 32 W offset [31:0] $end
$var reg 32 X out [31:0] $end
$upscope $end
$scope module r1 $end
$var wire 32 Y instr [31:0] $end
$var wire 32 Z tmp1 [31:0] $end
$var wire 32 [ tmp2 [31:0] $end
$var wire 32 \ in2 [31:0] $end
$var wire 32 ] in1 [31:0] $end
$var reg 32 ^ out [31:0] $end
$upscope $end
$scope module reg1 $end
$var wire 1 $ clk $end
$var wire 5 _ rd [4:0] $end
$var wire 32 ` regdata [31:0] $end
$var wire 5 a rs1 [4:0] $end
$var wire 5 b rs2 [4:0] $end
$var wire 32 c rv1 [31:0] $end
$var wire 32 d rv2 [31:0] $end
$var wire 1 : wer $end
$var wire 32 e x31 [31:0] $end
$var integer 32 f i [31:0] $end
$upscope $end
$scope module s1 $end
$var wire 32 g daddr [31:0] $end
$var wire 32 h instr [31:0] $end
$var reg 4 i we [3:0] $end
$upscope $end
$upscope $end
$upscope $end
$enddefinitions $end
$comment Show the parameter values. $end
$dumpall
b10000000 K
$end
#0
$dumpvars
bx i
bx h
bx g
b11111 f
b0 e
bx d
bx c
bx b
bx a
bx `
bx _
bx ^
bx ]
bx \
bx [
bx Z
bx Y
bx X
bx W
bx V
bx U
bx T
bx S
b0 R
bx Q
bx P
bx O
bx N
bx M
bx L
bx J
bx I
bx H
bx G
bx F
b0 E
bx D
bx C
bx B
bx A
bx @
bx ?
bx >
bx =
bx <
b0 ;
0:
b0 9
bx 8
bx 7
bx 6
bx 5
b100 4
bx 3
b0 2
bx 1
bx 0
bx /
bx .
bx -
bx ,
bx +
bx *
bx )
bx (
bx '
b0 &
1%
0$
b0 #
b100 "
b0 !
$end
#5000
b0 "
b0 4
1$
#10000
0$
#15000
1$
#20000
0$
#25000
1$
#30000
0$
0%
#35000
b100 "
b100 4
1$
#40000
0$
#45000
b1000 "
b1000 4
b100 #
b100 2
b100 ;
b100 R
1$
#50000
0$
#55000
b1100 "
b1100 4
b1000 #
b1000 2
b1000 ;
b1000 R
1$
#60000
0$
#65000
b10000 "
b10000 4
b1100 #
b1100 2
b1100 ;
b1100 R
1$
#70000
0$
#75000
b10100 "
b10100 4
b10000 #
b10000 2
b10000 ;
b10000 R
1$
#80000
0$
#85000
b11000 "
b11000 4
b10100 #
b10100 2
b10100 ;
b10100 R
1$
#90000
0$
#95000
b11100 "
b11100 4
b11000 #
b11000 2
b11000 ;
b11000 R
1$
#100000
0$
#105000
b100000 "
b100000 4
b11100 #
b11100 2
b11100 ;
b11100 R
1$
#110000
0$
#115000
b100100 "
b100100 4
b100000 #
b100000 2
b100000 ;
b100000 R
1$
#120000
0$
#125000
b101000 "
b101000 4
b100100 #
b100100 2
b100100 ;
b100100 R
1$
#130000
0$
#135000
b101100 "
b101100 4
b101000 #
b101000 2
b101000 ;
b101000 R
1$
#140000
0$
#145000
b110000 "
b110000 4
b101100 #
b101100 2
b101100 ;
b101100 R
1$
#150000
0$
#155000
b110100 "
b110100 4
b110000 #
b110000 2
b110000 ;
b110000 R
1$
#160000
0$
#165000
b111000 "
b111000 4
b110100 #
b110100 2
b110100 ;
b110100 R
1$
#170000
0$
#175000
b111100 "
b111100 4
b111000 #
b111000 2
b111000 ;
b111000 R
1$
#180000
0$
#185000
b1000000 "
b1000000 4
b111100 #
b111100 2
b111100 ;
b111100 R
1$
#190000
0$
#195000
b1000100 "
b1000100 4
b1000000 #
b1000000 2
b1000000 ;
b1000000 R
1$
#200000
0$
#205000
b1001000 "
b1001000 4
b1000100 #
b1000100 2
b1000100 ;
b1000100 R
1$
#210000
0$
#215000
b1001100 "
b1001100 4
b1001000 #
b1001000 2
b1001000 ;
b1001000 R
1$
#220000
0$
#225000
b1010000 "
b1010000 4
b1001100 #
b1001100 2
b1001100 ;
b1001100 R
1$
#230000
0$
#235000
b1010100 "
b1010100 4
b1010000 #
b1010000 2
b1010000 ;
b1010000 R
1$
#240000
0$
#245000
b1011000 "
b1011000 4
b1010100 #
b1010100 2
b1010100 ;
b1010100 R
1$
#250000
0$
#255000
b1011100 "
b1011100 4
b1011000 #
b1011000 2
b1011000 ;
b1011000 R
1$
#260000
0$
#265000
b1100000 "
b1100000 4
b1011100 #
b1011100 2
b1011100 ;
b1011100 R
1$
#270000
0$
#275000
b1100100 "
b1100100 4
b1100000 #
b1100000 2
b1100000 ;
b1100000 R
1$
#280000
0$
#285000
b1101000 "
b1101000 4
b1100100 #
b1100100 2
b1100100 ;
b1100100 R
1$
#290000
0$
#295000
b1101100 "
b1101100 4
b1101000 #
b1101000 2
b1101000 ;
b1101000 R
1$
#300000
0$
#305000
b1110000 "
b1110000 4
b1101100 #
b1101100 2
b1101100 ;
b1101100 R
1$
#310000
0$
#315000
b1110100 "
b1110100 4
b1110000 #
b1110000 2
b1110000 ;
b1110000 R
1$
#320000
0$
#325000
b1111000 "
b1111000 4
b1110100 #
b1110100 2
b1110100 ;
b1110100 R
1$
#330000
0$
#335000
b1111100 "
b1111100 4
b1111000 #
b1111000 2
b1111000 ;
b1111000 R
1$
#340000
0$
#345000
b10000000 "
b10000000 4
b1111100 #
b1111100 2
b1111100 ;
b1111100 R
1$
#350000
0$
#355000
b10000100 "
b10000100 4
b10000000 #
b10000000 2
b10000000 ;
b10000000 R
1$
#360000
0$
#365000
b10001000 "
b10001000 4
b10000100 #
b10000100 2
b10000100 ;
b10000100 R
1$
#370000
0$
#375000
b10001100 "
b10001100 4
b10001000 #
b10001000 2
b10001000 ;
b10001000 R
1$
#380000
0$
#385000
b10010000 "
b10010000 4
b10001100 #
b10001100 2
b10001100 ;
b10001100 R
1$
#390000
0$
#395000
b10010100 "
b10010100 4
b10010000 #
b10010000 2
b10010000 ;
b10010000 R
1$
#400000
0$
#405000
b10011000 "
b10011000 4
b10010100 #
b10010100 2
b10010100 ;
b10010100 R
1$
#410000
0$
#415000
b10011100 "
b10011100 4
b10011000 #
b10011000 2
b10011000 ;
b10011000 R
1$
#420000
0$
#425000
b10100000 "
b10100000 4
b10011100 #
b10011100 2
b10011100 ;
b10011100 R
1$
#430000
0$
#435000
b10100100 "
b10100100 4
b10100000 #
b10100000 2
b10100000 ;
b10100000 R
1$
#440000
0$
#445000
b10101000 "
b10101000 4
b10100100 #
b10100100 2
b10100100 ;
b10100100 R
1$
#450000
0$
#455000
b10101100 "
b10101100 4
b10101000 #
b10101000 2
b10101000 ;
b10101000 R
1$
#460000
0$
#465000
b10110000 "
b10110000 4
b10101100 #
b10101100 2
b10101100 ;
b10101100 R
1$
#470000
0$
#475000
b10110100 "
b10110100 4
b10110000 #
b10110000 2
b10110000 ;
b10110000 R
1$
#480000
0$
#485000
b10111000 "
b10111000 4
b10110100 #
b10110100 2
b10110100 ;
b10110100 R
1$
#490000
0$
#495000
b10111100 "
b10111100 4
b10111000 #
b10111000 2
b10111000 ;
b10111000 R
1$
#500000
0$
#505000
b11000000 "
b11000000 4
b10111100 #
b10111100 2
b10111100 ;
b10111100 R
1$
#510000
0$
#515000
b11000100 "
b11000100 4
b11000000 #
b11000000 2
b11000000 ;
b11000000 R
1$
#520000
0$
#525000
b11001000 "
b11001000 4
b11000100 #
b11000100 2
b11000100 ;
b11000100 R
1$
#530000
0$
#535000
b11001100 "
b11001100 4
b11001000 #
b11001000 2
b11001000 ;
b11001000 R
1$
#540000
0$
#545000
b11010000 "
b11010000 4
b11001100 #
b11001100 2
b11001100 ;
b11001100 R
1$
#550000
0$
#555000
b11010100 "
b11010100 4
b11010000 #
b11010000 2
b11010000 ;
b11010000 R
1$
#560000
0$
#565000
b11011000 "
b11011000 4
b11010100 #
b11010100 2
b11010100 ;
b11010100 R
1$
#570000
0$
#575000
b11011100 "
b11011100 4
b11011000 #
b11011000 2
b11011000 ;
b11011000 R
1$
#580000
0$
#585000
b11100000 "
b11100000 4
b11011100 #
b11011100 2
b11011100 ;
b11011100 R
1$
#590000
0$
#595000
b11100100 "
b11100100 4
b11100000 #
b11100000 2
b11100000 ;
b11100000 R
1$
#600000
0$
#605000
b11101000 "
b11101000 4
b11100100 #
b11100100 2
b11100100 ;
b11100100 R
1$
#610000
0$
#615000
b11101100 "
b11101100 4
b11101000 #
b11101000 2
b11101000 ;
b11101000 R
1$
#620000
0$
#625000
b11110000 "
b11110000 4
b11101100 #
b11101100 2
b11101100 ;
b11101100 R
1$
#630000
0$
#635000
b11110100 "
b11110100 4
b11110000 #
b11110000 2
b11110000 ;
b11110000 R
1$
#640000
0$
#645000
b11111000 "
b11111000 4
b11110100 #
b11110100 2
b11110100 ;
b11110100 R
1$
#650000
0$
#655000
b11111100 "
b11111100 4
b11111000 #
b11111000 2
b11111000 ;
b11111000 R
1$
#660000
0$
#665000
b100000000 "
b100000000 4
b11111100 #
b11111100 2
b11111100 ;
b11111100 R
1$
#670000
0$
#675000
b100000100 "
b100000100 4
b100000000 #
b100000000 2
b100000000 ;
b100000000 R
1$
#680000
0$
#685000
b100001000 "
b100001000 4
b100000100 #
b100000100 2
b100000100 ;
b100000100 R
1$
#690000
0$
#695000
b100001100 "
b100001100 4
b100001000 #
b100001000 2
b100001000 ;
b100001000 R
1$
#700000
0$
#705000
b100010000 "
b100010000 4
b100001100 #
b100001100 2
b100001100 ;
b100001100 R
1$
#710000
0$
#715000
b100010100 "
b100010100 4
b100010000 #
b100010000 2
b100010000 ;
b100010000 R
1$
#720000
0$
#725000
b100011000 "
b100011000 4
b100010100 #
b100010100 2
b100010100 ;
b100010100 R
1$
#730000
0$
#735000
b100011100 "
b100011100 4
b100011000 #
b100011000 2
b100011000 ;
b100011000 R
1$
#740000
0$
#745000
b100100000 "
b100100000 4
b100011100 #
b100011100 2
b100011100 ;
b100011100 R
1$
#750000
0$
#755000
b100100100 "
b100100100 4
b100100000 #
b100100000 2
b100100000 ;
b100100000 R
1$
#760000
0$
#765000
b100101000 "
b100101000 4
b100100100 #
b100100100 2
b100100100 ;
b100100100 R
1$
#770000
0$
#775000
b100101100 "
b100101100 4
b100101000 #
b100101000 2
b100101000 ;
b100101000 R
1$
#780000
0$
#785000
b100110000 "
b100110000 4
b100101100 #
b100101100 2
b100101100 ;
b100101100 R
1$
#790000
0$
#795000
b100110100 "
b100110100 4
b100110000 #
b100110000 2
b100110000 ;
b100110000 R
1$
#800000
0$
#805000
b100111000 "
b100111000 4
b100110100 #
b100110100 2
b100110100 ;
b100110100 R
1$
#810000
0$
#815000
b100111100 "
b100111100 4
b100111000 #
b100111000 2
b100111000 ;
b100111000 R
1$
#820000
0$
#825000
b101000000 "
b101000000 4
b100111100 #
b100111100 2
b100111100 ;
b100111100 R
1$
#830000
0$
#835000
b101000100 "
b101000100 4
b101000000 #
b101000000 2
b101000000 ;
b101000000 R
1$
#840000
0$
#845000
b101001000 "
b101001000 4
b101000100 #
b101000100 2
b101000100 ;
b101000100 R
1$
#850000
0$
#855000
b101001100 "
b101001100 4
b101001000 #
b101001000 2
b101001000 ;
b101001000 R
1$
#860000
0$
#865000
b101010000 "
b101010000 4
b101001100 #
b101001100 2
b101001100 ;
b101001100 R
1$
#870000
0$
#875000
b101010100 "
b101010100 4
b101010000 #
b101010000 2
b101010000 ;
b101010000 R
1$
#880000
0$
#885000
b101011000 "
b101011000 4
b101010100 #
b101010100 2
b101010100 ;
b101010100 R
1$
#890000
0$
#895000
b101011100 "
b101011100 4
b101011000 #
b101011000 2
b101011000 ;
b101011000 R
1$
#900000
0$
#905000
b101100000 "
b101100000 4
b101011100 #
b101011100 2
b101011100 ;
b101011100 R
1$
#910000
0$
#915000
b101100100 "
b101100100 4
b101100000 #
b101100000 2
b101100000 ;
b101100000 R
1$
#920000
0$
#925000
b101101000 "
b101101000 4
b101100100 #
b101100100 2
b101100100 ;
b101100100 R
1$
#930000
0$
#935000
b101101100 "
b101101100 4
b101101000 #
b101101000 2
b101101000 ;
b101101000 R
1$
#940000
0$
#945000
b101110000 "
b101110000 4
b101101100 #
b101101100 2
b101101100 ;
b101101100 R
1$
#950000
0$
#955000
b101110100 "
b101110100 4
b101110000 #
b101110000 2
b101110000 ;
b101110000 R
1$
#960000
0$
#965000
b101111000 "
b101111000 4
b101110100 #
b101110100 2
b101110100 ;
b101110100 R
1$
#970000
0$
#975000
b101111100 "
b101111100 4
b101111000 #
b101111000 2
b101111000 ;
b101111000 R
1$
#980000
0$
#985000
b110000000 "
b110000000 4
b101111100 #
b101111100 2
b101111100 ;
b101111100 R
1$
#990000
0$
#995000
b110000100 "
b110000100 4
b110000000 #
b110000000 2
b110000000 ;
b110000000 R
1$
#1000000
0$
#1005000
b110001000 "
b110001000 4
b110000100 #
b110000100 2
b110000100 ;
b110000100 R
1$
#1010000
0$
#1015000
b110001100 "
b110001100 4
b110001000 #
b110001000 2
b110001000 ;
b110001000 R
1$
#1020000
0$
#1025000
b110010000 "
b110010000 4
b110001100 #
b110001100 2
b110001100 ;
b110001100 R
1$
#1030000
0$
#1035000
b110010100 "
b110010100 4
b110010000 #
b110010000 2
b110010000 ;
b110010000 R
1$
#1040000
0$
#1045000
b110011000 "
b110011000 4
b110010100 #
b110010100 2
b110010100 ;
b110010100 R
1$
#1050000
0$
#1055000
b110011100 "
b110011100 4
b110011000 #
b110011000 2
b110011000 ;
b110011000 R
1$
#1060000
0$
#1065000
b110100000 "
b110100000 4
b110011100 #
b110011100 2
b110011100 ;
b110011100 R
1$
#1070000
0$
#1075000
b110100100 "
b110100100 4
b110100000 #
b110100000 2
b110100000 ;
b110100000 R
1$
#1080000
0$
#1085000
b110101000 "
b110101000 4
b110100100 #
b110100100 2
b110100100 ;
b110100100 R
1$
#1090000
0$
#1095000
b110101100 "
b110101100 4
b110101000 #
b110101000 2
b110101000 ;
b110101000 R
1$
#1100000
0$
#1105000
b110110000 "
b110110000 4
b110101100 #
b110101100 2
b110101100 ;
b110101100 R
1$
#1110000
0$
#1115000
b110110100 "
b110110100 4
b110110000 #
b110110000 2
b110110000 ;
b110110000 R
1$
#1120000
0$
#1125000
b110111000 "
b110111000 4
b110110100 #
b110110100 2
b110110100 ;
b110110100 R
1$
#1130000
0$
#1135000
b110111100 "
b110111100 4
b110111000 #
b110111000 2
b110111000 ;
b110111000 R
1$
#1140000
0$
#1145000
b111000000 "
b111000000 4
b110111100 #
b110111100 2
b110111100 ;
b110111100 R
1$
#1150000
0$
#1155000
b111000100 "
b111000100 4
b111000000 #
b111000000 2
b111000000 ;
b111000000 R
1$
#1160000
0$
#1165000
b111001000 "
b111001000 4
b111000100 #
b111000100 2
b111000100 ;
b111000100 R
1$
#1170000
0$
#1175000
b111001100 "
b111001100 4
b111001000 #
b111001000 2
b111001000 ;
b111001000 R
1$
#1180000
0$
#1185000
b111010000 "
b111010000 4
b111001100 #
b111001100 2
b111001100 ;
b111001100 R
1$
#1190000
0$
#1195000
b111010100 "
b111010100 4
b111010000 #
b111010000 2
b111010000 ;
b111010000 R
1$
#1200000
0$
#1205000
b111011000 "
b111011000 4
b111010100 #
b111010100 2
b111010100 ;
b111010100 R
1$
#1210000
0$
#1215000
b111011100 "
b111011100 4
b111011000 #
b111011000 2
b111011000 ;
b111011000 R
1$
#1220000
0$
#1225000
b111100000 "
b111100000 4
b111011100 #
b111011100 2
b111011100 ;
b111011100 R
1$
#1230000
0$
#1235000
b111100100 "
b111100100 4
b111100000 #
b111100000 2
b111100000 ;
b111100000 R
1$
#1240000
0$
#1245000
b111101000 "
b111101000 4
b111100100 #
b111100100 2
b111100100 ;
b111100100 R
1$
#1250000
0$
#1255000
b111101100 "
b111101100 4
b111101000 #
b111101000 2
b111101000 ;
b111101000 R
1$
#1260000
0$
#1265000
b111110000 "
b111110000 4
b111101100 #
b111101100 2
b111101100 ;
b111101100 R
1$
#1270000
0$
#1275000
b111110100 "
b111110100 4
b111110000 #
b111110000 2
b111110000 ;
b111110000 R
1$
#1280000
0$
#1285000
b111111000 "
b111111000 4
b111110100 #
b111110100 2
b111110100 ;
b111110100 R
1$
#1290000
0$
#1295000
b111111100 "
b111111100 4
b111111000 #
b111111000 2
b111111000 ;
b111111000 R
1$
#1300000
0$
#1305000
b1000000000 "
b1000000000 4
b111111100 #
b111111100 2
b111111100 ;
b111111100 R
1$
#1310000
0$
#1315000
b1000000100 "
b1000000100 4
b1000000000 #
b1000000000 2
b1000000000 ;
b1000000000 R
1$
#1320000
0$
#1325000
b1000001000 "
b1000001000 4
b1000000100 #
b1000000100 2
b1000000100 ;
b1000000100 R
1$
#1330000
0$
#1335000
b1000001100 "
b1000001100 4
b1000001000 #
b1000001000 2
b1000001000 ;
b1000001000 R
1$
#1340000
0$
#1345000
b1000010000 "
b1000010000 4
b1000001100 #
b1000001100 2
b1000001100 ;
b1000001100 R
1$
#1350000
0$
#1355000
b1000010100 "
b1000010100 4
b1000010000 #
b1000010000 2
b1000010000 ;
b1000010000 R
1$
#1360000
0$
#1365000
b1000011000 "
b1000011000 4
b1000010100 #
b1000010100 2
b1000010100 ;
b1000010100 R
1$
#1370000
0$
#1375000
b1000011100 "
b1000011100 4
b1000011000 #
b1000011000 2
b1000011000 ;
b1000011000 R
1$
#1380000
0$
#1385000
b1000100000 "
b1000100000 4
b1000011100 #
b1000011100 2
b1000011100 ;
b1000011100 R
1$
#1390000
0$
#1395000
b1000100100 "
b1000100100 4
b1000100000 #
b1000100000 2
b1000100000 ;
b1000100000 R
1$
#1400000
0$
#1405000
b1000101000 "
b1000101000 4
b1000100100 #
b1000100100 2
b1000100100 ;
b1000100100 R
1$
#1410000
0$
#1415000
b1000101100 "
b1000101100 4
b1000101000 #
b1000101000 2
b1000101000 ;
b1000101000 R
1$
#1420000
0$
#1425000
b1000110000 "
b1000110000 4
b1000101100 #
b1000101100 2
b1000101100 ;
b1000101100 R
1$
#1430000
0$
#1435000
b1000110100 "
b1000110100 4
b1000110000 #
b1000110000 2
b1000110000 ;
b1000110000 R
1$
#1440000
0$
#1445000
b1000111000 "
b1000111000 4
b1000110100 #
b1000110100 2
b1000110100 ;
b1000110100 R
1$
#1450000
0$
#1455000
b1000111100 "
b1000111100 4
b1000111000 #
b1000111000 2
b1000111000 ;
b1000111000 R
1$
#1460000
0$
#1465000
b1001000000 "
b1001000000 4
b1000111100 #
b1000111100 2
b1000111100 ;
b1000111100 R
1$
#1470000
0$
#1475000
b1001000100 "
b1001000100 4
b1001000000 #
b1001000000 2
b1001000000 ;
b1001000000 R
1$
#1480000
0$
#1485000
b1001001000 "
b1001001000 4
b1001000100 #
b1001000100 2
b1001000100 ;
b1001000100 R
1$
#1490000
0$
#1495000
b1001001100 "
b1001001100 4
b1001001000 #
b1001001000 2
b1001001000 ;
b1001001000 R
1$
#1500000
0$
#1505000
b1001010000 "
b1001010000 4
b1001001100 #
b1001001100 2
b1001001100 ;
b1001001100 R
1$
#1510000
0$
#1515000
b1001010100 "
b1001010100 4
b1001010000 #
b1001010000 2
b1001010000 ;
b1001010000 R
1$
#1520000
0$
#1525000
b1001011000 "
b1001011000 4
b1001010100 #
b1001010100 2
b1001010100 ;
b1001010100 R
1$
#1530000
0$
#1535000
b1001011100 "
b1001011100 4
b1001011000 #
b1001011000 2
b1001011000 ;
b1001011000 R
1$
#1540000
0$
#1545000
b1001100000 "
b1001100000 4
b1001011100 #
b1001011100 2
b1001011100 ;
b1001011100 R
1$
#1550000
0$
#1555000
b1001100100 "
b1001100100 4
b1001100000 #
b1001100000 2
b1001100000 ;
b1001100000 R
1$
#1560000
0$
#1565000
b1001101000 "
b1001101000 4
b1001100100 #
b1001100100 2
b1001100100 ;
b1001100100 R
1$
#1570000
0$
#1575000
b1001101100 "
b1001101100 4
b1001101000 #
b1001101000 2
b1001101000 ;
b1001101000 R
1$
#1580000
0$
#1585000
b1001110000 "
b1001110000 4
b1001101100 #
b1001101100 2
b1001101100 ;
b1001101100 R
1$
#1590000
0$
#1595000
b1001110100 "
b1001110100 4
b1001110000 #
b1001110000 2
b1001110000 ;
b1001110000 R
1$
#1600000
0$
#1605000
b1001111000 "
b1001111000 4
b1001110100 #
b1001110100 2
b1001110100 ;
b1001110100 R
1$
#1610000
0$
#1615000
b1001111100 "
b1001111100 4
b1001111000 #
b1001111000 2
b1001111000 ;
b1001111000 R
1$
#1620000
0$
#1625000
b1010000000 "
b1010000000 4
b1001111100 #
b1001111100 2
b1001111100 ;
b1001111100 R
1$
#1630000
0$
#1635000
b1010000100 "
b1010000100 4
b1010000000 #
b1010000000 2
b1010000000 ;
b1010000000 R
1$
#1640000
0$
#1645000
b1010001000 "
b1010001000 4
b1010000100 #
b1010000100 2
b1010000100 ;
b1010000100 R
1$
#1650000
0$
#1655000
b1010001100 "
b1010001100 4
b1010001000 #
b1010001000 2
b1010001000 ;
b1010001000 R
1$
#1660000
0$
#1665000
b1010010000 "
b1010010000 4
b1010001100 #
b1010001100 2
b1010001100 ;
b1010001100 R
1$
#1670000
0$
#1675000
b1010010100 "
b1010010100 4
b1010010000 #
b1010010000 2
b1010010000 ;
b1010010000 R
1$
#1680000
0$
#1685000
b1010011000 "
b1010011000 4
b1010010100 #
b1010010100 2
b1010010100 ;
b1010010100 R
1$
#1690000
0$
#1695000
b1010011100 "
b1010011100 4
b1010011000 #
b1010011000 2
b1010011000 ;
b1010011000 R
1$
#1700000
0$
#1705000
b1010100000 "
b1010100000 4
b1010011100 #
b1010011100 2
b1010011100 ;
b1010011100 R
1$
#1710000
0$
#1715000
b1010100100 "
b1010100100 4
b1010100000 #
b1010100000 2
b1010100000 ;
b1010100000 R
1$
#1720000
0$
#1725000
b1010101000 "
b1010101000 4
b1010100100 #
b1010100100 2
b1010100100 ;
b1010100100 R
1$
#1730000
0$
#1735000
b1010101100 "
b1010101100 4
b1010101000 #
b1010101000 2
b1010101000 ;
b1010101000 R
1$
#1740000
0$
#1745000
b1010110000 "
b1010110000 4
b1010101100 #
b1010101100 2
b1010101100 ;
b1010101100 R
1$
#1750000
0$
#1755000
b1010110100 "
b1010110100 4
b1010110000 #
b1010110000 2
b1010110000 ;
b1010110000 R
1$
#1760000
0$
#1765000
b1010111000 "
b1010111000 4
b1010110100 #
b1010110100 2
b1010110100 ;
b1010110100 R
1$
#1770000
0$
#1775000
b1010111100 "
b1010111100 4
b1010111000 #
b1010111000 2
b1010111000 ;
b1010111000 R
1$
#1780000
0$
#1785000
b1011000000 "
b1011000000 4
b1010111100 #
b1010111100 2
b1010111100 ;
b1010111100 R
1$
#1790000
0$
#1795000
b1011000100 "
b1011000100 4
b1011000000 #
b1011000000 2
b1011000000 ;
b1011000000 R
1$
#1800000
0$
#1805000
b1011001000 "
b1011001000 4
b1011000100 #
b1011000100 2
b1011000100 ;
b1011000100 R
1$
#1810000
0$
#1815000
b1011001100 "
b1011001100 4
b1011001000 #
b1011001000 2
b1011001000 ;
b1011001000 R
1$
#1820000
0$
#1825000
b1011010000 "
b1011010000 4
b1011001100 #
b1011001100 2
b1011001100 ;
b1011001100 R
1$
#1830000
0$
#1835000
b1011010100 "
b1011010100 4
b1011010000 #
b1011010000 2
b1011010000 ;
b1011010000 R
1$
#1840000
0$
#1845000
b1011011000 "
b1011011000 4
b1011010100 #
b1011010100 2
b1011010100 ;
b1011010100 R
1$
#1850000
0$
#1855000
b1011011100 "
b1011011100 4
b1011011000 #
b1011011000 2
b1011011000 ;
b1011011000 R
1$
#1860000
0$
#1865000
b1011100000 "
b1011100000 4
b1011011100 #
b1011011100 2
b1011011100 ;
b1011011100 R
1$
#1870000
0$
#1875000
b1011100100 "
b1011100100 4
b1011100000 #
b1011100000 2
b1011100000 ;
b1011100000 R
1$
#1880000
0$
#1885000
b1011101000 "
b1011101000 4
b1011100100 #
b1011100100 2
b1011100100 ;
b1011100100 R
1$
#1890000
0$
#1895000
b1011101100 "
b1011101100 4
b1011101000 #
b1011101000 2
b1011101000 ;
b1011101000 R
1$
#1900000
0$
#1905000
b1011110000 "
b1011110000 4
b1011101100 #
b1011101100 2
b1011101100 ;
b1011101100 R
1$
#1910000
0$
#1915000
b1011110100 "
b1011110100 4
b1011110000 #
b1011110000 2
b1011110000 ;
b1011110000 R
1$
#1920000
0$
#1925000
b1011111000 "
b1011111000 4
b1011110100 #
b1011110100 2
b1011110100 ;
b1011110100 R
1$
#1930000
0$
#1935000
b1011111100 "
b1011111100 4
b1011111000 #
b1011111000 2
b1011111000 ;
b1011111000 R
1$
#1940000
0$
#1945000
b1100000000 "
b1100000000 4
b1011111100 #
b1011111100 2
b1011111100 ;
b1011111100 R
1$
#1950000
0$
#1955000
b1100000100 "
b1100000100 4
b1100000000 #
b1100000000 2
b1100000000 ;
b1100000000 R
1$
#1960000
0$
#1965000
b1100001000 "
b1100001000 4
b1100000100 #
b1100000100 2
b1100000100 ;
b1100000100 R
1$
#1970000
0$
#1975000
b1100001100 "
b1100001100 4
b1100001000 #
b1100001000 2
b1100001000 ;
b1100001000 R
1$
#1980000
0$
#1985000
b1100010000 "
b1100010000 4
b1100001100 #
b1100001100 2
b1100001100 ;
b1100001100 R
1$
#1990000
0$
#1995000
b1100010100 "
b1100010100 4
b1100010000 #
b1100010000 2
b1100010000 ;
b1100010000 R
1$
#2000000
0$
#2005000
b1100011000 "
b1100011000 4
b1100010100 #
b1100010100 2
b1100010100 ;
b1100010100 R
1$
#2010000
0$
#2015000
b1100011100 "
b1100011100 4
b1100011000 #
b1100011000 2
b1100011000 ;
b1100011000 R
1$
#2020000
0$
#2025000
b1100100000 "
b1100100000 4
b1100011100 #
b1100011100 2
b1100011100 ;
b1100011100 R
1$
#2030000
0$
#2035000
b1100100100 "
b1100100100 4
b1100100000 #
b1100100000 2
b1100100000 ;
b1100100000 R
1$
#2040000
0$
#2045000
b1100101000 "
b1100101000 4
b1100100100 #
b1100100100 2
b1100100100 ;
b1100100100 R
1$
#2050000
0$
#2055000
b1100101100 "
b1100101100 4
b1100101000 #
b1100101000 2
b1100101000 ;
b1100101000 R
1$
#2060000
0$
#2065000
b1100110000 "
b1100110000 4
b1100101100 #
b1100101100 2
b1100101100 ;
b1100101100 R
1$
#2070000
0$
#2075000
b1100110100 "
b1100110100 4
b1100110000 #
b1100110000 2
b1100110000 ;
b1100110000 R
1$
#2080000
0$
#2085000
b1100111000 "
b1100111000 4
b1100110100 #
b1100110100 2
b1100110100 ;
b1100110100 R
1$
#2090000
0$
#2095000
b1100111100 "
b1100111100 4
b1100111000 #
b1100111000 2
b1100111000 ;
b1100111000 R
1$
#2100000
0$
#2105000
b1101000000 "
b1101000000 4
b1100111100 #
b1100111100 2
b1100111100 ;
b1100111100 R
1$
#2110000
0$
#2115000
b1101000100 "
b1101000100 4
b1101000000 #
b1101000000 2
b1101000000 ;
b1101000000 R
1$
#2120000
0$
#2125000
b1101001000 "
b1101001000 4
b1101000100 #
b1101000100 2
b1101000100 ;
b1101000100 R
1$
#2130000
0$
#2135000
b1101001100 "
b1101001100 4
b1101001000 #
b1101001000 2
b1101001000 ;
b1101001000 R
1$
#2140000
0$
#2145000
b1101010000 "
b1101010000 4
b1101001100 #
b1101001100 2
b1101001100 ;
b1101001100 R
1$
#2150000
0$
#2155000
b1101010100 "
b1101010100 4
b1101010000 #
b1101010000 2
b1101010000 ;
b1101010000 R
1$
#2160000
0$
#2165000
b1101011000 "
b1101011000 4
b1101010100 #
b1101010100 2
b1101010100 ;
b1101010100 R
1$
#2170000
0$
