Single_Cycle_CPU/pipeline_cpu_tb.vcd
$date
	Fri Feb 21 16:35:29 2025
$end
$version
	Icarus Verilog
$end
$timescale
	1ps
$end
$scope module cpu_tb $end
$var wire 32 ! x31 [31:0] $end
$var wire 32 " pc [31:0] $end
$var wire 32 # iaddr [31:0] $end
$var reg 1 $ clk $end
$var reg 1 % reset $end
$scope module dut $end
$var wire 1 $ clk $end
$var wire 1 % reset $end
$var wire 32 & x31 [31:0] $end
$var wire 4 ' we_S [3:0] $end
$var wire 32 ( rv2 [31:0] $end
$var wire 32 ) rv1 [31:0] $end
$var wire 32 * regdata_R [31:0] $end
$var wire 32 + regdata_L [31:0] $end
$var wire 32 , regdata_I [31:0] $end
$var wire 32 - idata [31:0] $end
$var wire 32 . iaddr_val [31:0] $end
$var wire 32 / drdata [31:0] $end
$var reg 32 0 daddr [31:0] $end
$var reg 32 1 dwdata [31:0] $end
$var reg 32 2 iaddr [31:0] $end
$var reg 32 3 imm [31:0] $end
$var reg 32 4 pc [31:0] $end
$var reg 5 5 rd [4:0] $end
$var reg 32 6 regdata [31:0] $end
$var reg 5 7 rs1 [4:0] $end
$var reg 5 8 rs2 [4:0] $end
$var reg 4 9 we [3:0] $end
$var reg 1 : wer $end
$scope module b1 $end
$var wire 32 ; iaddr [31:0] $end
$var wire 32 < imm [31:0] $end
$var wire 32 = tmp1 [31:0] $end
$var wire 32 > tmp2 [31:0] $end
$var wire 32 ? instr [31:0] $end
$var wire 32 @ in2 [31:0] $end
$var wire 32 A in1 [31:0] $end
$var reg 32 B out [31:0] $end
$upscope $end
$scope module d1 $end
$var wire 1 $ clk $end
$var wire 32 C daddr [31:0] $end
$var wire 32 D dwdata [31:0] $end
$var wire 4 E we [3:0] $end
$var wire 32 F drdata [31:0] $end
$var wire 32 G add3 [31:0] $end
$var wire 32 H add2 [31:0] $end
$var wire 32 I add1 [31:0] $end
$var wire 32 J add0 [31:0] $end
$var parameter 32 K MEM_SIZE $end
$upscope $end
$scope module i1 $end
$var wire 32 L imm [31:0] $end
$var wire 32 M tmp1 [31:0] $end
$var wire 12 N tmp2 [11:0] $end
$var wire 32 O instr [31:0] $end
$var wire 32 P in1 [31:0] $end
$var reg 32 Q out [31:0] $end
$upscope $end
$scope module im2 $end
$var wire 32 R iaddr [31:0] $end
$var wire 32 S idata [31:0] $end
$upscope $end
$scope module l1 $end
$var wire 32 T daddr [31:0] $end
$var wire 32 U drdata [31:0] $end
$var wire 32 V instr [31:0] $end
$var reg 32 W offset [31:0] $end
$var reg 32 X out [31:0] $end
$upscope $end
$scope module r1 $end
$var wire 32 Y instr [31:0] $end
$var wire 32 Z tmp1 [31:0] $end
$var wire 32 [ tmp2 [31:0] $end
$var wire 32 \ in2 [31:0] $end
$var wire 32 ] in1 [31:0] $end
$var reg 32 ^ out [31:0] $end
$upscope $end
$scope module reg1 $end
$var wire 1 $ clk $end
$var wire 5 _ rd [4:0] $end
$var wire 32 ` regdata [31:0] $end
$var wire 5 a rs1 [4:0] $end
$var wire 5 b rs2 [4:0] $end
$var wire 32 c rv1 [31:0] $end
$var wire 32 d rv2 [31:0] $end
$var wire 1 : wer $end
$var wire 32 e x31 [31:0] $end
$var integer 32 f i [31:0] $end
$upscope $end
$scope module s1 $end
$var wire 32 g daddr [31:0] $end
$var wire 32 h instr [31:0] $end
$var reg 4 i we [3:0] $end
$upscope $end
$upscope $end
$upscope $end
$enddefinitions $end
$comment Show the parameter values. $end
$dumpall
b10000000 K
$end
#0
$dumpvars
bx i
b10110 h
bx g
b11111 f
b0 e
bx d
bx c
bx b
bx a
bx `
bx _
bx ^
bx ]
bx \
bx [
bx Z
b10110 Y
bx X
b0xx000 W
b10110 V
bx U
bx T
b10110 S
b0 R
bx Q
bx P
b10110 O
bx N
bx M
bx L
bx J
bx I
bx H
bx G
bx F
b0 E
bx D
bx C
bx B
bx A
bx @
b10110 ?
bx >
bx =
bx <
b0 ;
0:
b0 9
bx 8
bx 7
bx 6
bx 5
b100 4
bx 3
b0 2
bx 1
bx 0
bx /
bx .
b10110 -
bx ,
bx +
bx *
bx )
bx (
bx '
b0 &
1%
0$
b0 #
b100 "
b0 !
$end
#5000
b0 "
b0 4
1$
#10000
0$
#15000
1$
#20000
0$
#25000
1$
#30000
0$
0%
#35000
b100 "
b100 4
1$
#40000
0$
#45000
b10100 6
b10100 `
b10100 N
b11000 .
b11000 B
b10100 ,
b10100 Q
b0 *
b0 ^
1:
b10100 3
b10100 <
b10100 L
b0 [
b0 >
b0 (
b0 @
b0 \
b0 d
b0 8
b0 b
b0 Z
b0 M
b0 =
b0 )
b0 A
b0 P
b0 ]
b0 c
b0 7
b0 a
b110 5
b110 _
b1000 "
b1000 4
b1010000000000001100010011 -
b1010000000000001100010011 ?
b1010000000000001100010011 O
b1010000000000001100010011 S
b1010000000000001100010011 V
b1010000000000001100010011 Y
b1010000000000001100010011 h
b100 #
b100 2
b100 ;
b100 R
1$
#50000
0$
#55000
b1100 .
b1100 B
b11001 ,
b11001 Q
b11001 *
b11001 ^
b11001 6
b11001 `
b10100 [
b10100 >
b10100 (
b10100 @
b10100 \
b10100 d
b110 8
b110 b
b101 Z
b101 M
b101 =
b101 )
b101 A
b101 P
b101 ]
b101 c
b101 7
b101 a
b111 5
b111 _
b1100 "
b1100 4
b11000101000001110110011 -
b11000101000001110110011 ?
b11000101000001110110011 O
b11000101000001110110011 S
b11000101000001110110011 V
b11000101000001110110011 Y
b11000101000001110110011 h
b1000 #
b1000 2
b1000 ;
b1000 R
1$
#60000
0$
#65000
b10100 6
b10100 `
b10000 .
b10000 B
b101101 ,
b101101 Q
b10100 *
b10100 ^
b101 [
b101 >
b101 (
b101 @
b101 \
b101 d
b101 8
b101 b
b11001 Z
b11001 M
b11001 =
b11001 )
b11001 A
b11001 P
b11001 ]
b11001 c
b111 7
b111 a
b11100 5
b11100 _
b10000 "
b10000 4
b1000000010100111000111000110011 -
b1000000010100111000111000110011 ?
b1000000010100111000111000110011 O
b1000000010100111000111000110011 S
b1000000010100111000111000110011 V
b1000000010100111000111000110011 Y
b1000000010100111000111000110011 h
b1100 #
b1100 2
b1100 ;
b1100 R
1$
#70000
0$
#75000
b0 6
b0 `
b10100 .
b10100 B
b0 ,
b0 Q
b0xxxxxxxx +
b0xxxxxxxx X
b0 *
b0 ^
b10100 [
b10100 >
b10100 (
b10100 @
b10100 \
b10100 d
b110 8
b110 b
b10100 Z
b10100 M
b10100 =
b10100 )
b10100 A
b10100 P
b10100 ]
b10100 c
b11100 7
b11100 a
b11101 5
b11101 _
b10100 "
b10100 4
b11011100100111010110011 -
b11011100100111010110011 ?
b11011100100111010110011 O
b11011100100111010110011 S
b11011100100111010110011 V
b11011100100111010110011 Y
b11011100100111010110011 h
b10000 #
b10000 2
b10000 ;
b10000 R
1$
#80000
0$
#85000
b10100 6
b10100 `
b11000 .
b11000 B
b10100 ,
b10100 Q
b10100 *
b10100 ^
b11110 5
b11110 _
b11000 "
b11000 4
b11011100110111100110011 -
b11011100110111100110011 ?
b11011100110111100110011 O
b11011100110111100110011 S
b11011100110111100110011 V
b11011100110111100110011 Y
b11011100110111100110011 h
b10100 #
b10100 2
b10100 ;
b10100 R
1$
#90000
0$
#95000
b101100 .
b101100 B
b11111 5
b11111 _
b11100 "
b11100 4
b11011100111111110110011 -
b11011100111111110110011 ?
b11011100111111110110011 O
b11011100111111110110011 S
b11011100111111110110011 V
b11011100111111110110011 Y
b11011100111111110110011 h
b11000 #
b11000 2
b11000 ;
b11000 R
1$
#100000
0$
#105000
b1010 6
b1010 `
b101 N
b100000 .
b100000 B
b1010 ,
b1010 Q
bx +
bx X
b101 *
b101 ^
b101 3
b101 <
b101 L
b0 [
b0 >
b0 (
b0 @
b0 \
b0 d
b0 8
b0 b
b101 Z
b101 M
b101 =
b101 )
b101 A
b101 P
b101 ]
b101 c
b101 7
b101 a
b1010 5
b1010 _
b100000 "
b100000 4
b10100101000010100010011 -
b10100101000010100010011 ?
b10100101000010100010011 O
b10100101000010100010011 S
b10100101000010100010011 V
b10100101000010100010011 Y
b10100101000010100010011 h
b11100 #
b11100 2
b11100 ;
b11100 R
b10100 !
b10100 &
b10100 e
1$
#110000
0$
#115000
b100 6
b100 `
b1111 N
b101111 .
b101111 B
b100 ,
b100 Q
b0 *
b0 ^
b1111 3
b1111 <
b1111 L
b10100 Z
b10100 M
b10100 =
b10100 )
b10100 A
b10100 P
b10100 ]
b10100 c
b110 7
b110 a
b1011 5
b1011 _
b100100 "
b100100 4
b111100110111010110010011 -
b111100110111010110010011 ?
b111100110111010110010011 O
b111100110111010110010011 S
b111100110111010110010011 V
b111100110111010110010011 Y
b111100110111010110010011 h
b100000 #
b100000 2
b100000 ;
b100000 R
1$
#120000
0$
#125000
b11001 6
b11001 `
b1000 N
b101000 .
b101000 B
b11001 ,
b11001 Q
b11001 *
b11001 ^
b1000 3
b1000 <
b1000 L
b11001 Z
b11001 M
b11001 =
b11001 )
b11001 A
b11001 P
b11001 ]
b11001 c
b111 7
b111 a
b1100 5
b1100 _
b101000 "
b101000 4
b100000111110011000010011 -
b100000111110011000010011 ?
b100000111110011000010011 O
b100000111110011000010011 S
b100000111110011000010011 V
b100000111110011000010011 Y
b100000111110011000010011 h
b100100 #
b100100 2
b100100 ;
b100100 R
1$
#130000
0$
#135000
b0 N
b101100 .
b101100 B
b0 6
b0 `
b0 3
b0 <
b0 L
b1101 5
b1101 _
b101100 "
b101100 4
b11010110111 -
b11010110111 ?
b11010110111 O
b11010110111 S
b11010110111 V
b11010110111 Y
b11010110111 h
b101000 #
b101000 2
b101000 ;
b101000 R
1$
#140000
0$
#145000
b0 ,
b0 Q
b0 *
b0 ^
b0 6
b0 `
b0 Z
b0 M
b0 =
b0 )
b0 A
b0 P
b0 ]
b0 c
b1101 7
b1101 a
b110000 "
b110000 4
b1101000011010010011 -
b1101000011010010011 ?
b1101000011010010011 O
b1101000011010010011 S
b1101000011010010011 V
b1101000011010010011 Y
b1101000011010010011 h
b101100 #
b101100 2
b101100 ;
b101100 R
1$
#150000
0$
#155000
b10110 +
b10110 X
b0 J
b1 I
b10 H
b10110 /
b10110 F
b10110 U
b11 G
b0 W
b1111 '
b1111 i
b10110 6
b10110 `
b0 0
b0 C
b0 T
b0 g
b111 5
b111 _
b110100 "
b110100 4
b1101010001110000011 -
b1101010001110000011 ?
b1101010001110000011 O
b1101010001110000011 S
b1101010001110000011 V
b1101010001110000011 Y
b1101010001110000011 h
b110000 #
b110000 2
b110000 ;
b110000 R
1$
#160000
0$
#165000
b1 N
b111000 .
b111000 B
b10111 ,
b10111 Q
b10110 *
b10110 ^
b1 '
b1 i
b10111 6
b10111 `
b1 3
b1 <
b1 L
b10110 Z
b10110 M
b10110 =
b10110 )
b10110 A
b10110 P
b10110 ]
b10110 c
b111 7
b111 a
b111000 "
b111000 4
b100111000001110010011 -
b100111000001110010011 ?
b100111000001110010011 O
b100111000001110010011 S
b100111000001110010011 V
b100111000001110010011 Y
b100111000001110010011 h
b110100 #
b110100 2
b110100 ;
b110100 R
1$
#170000
0$
#175000
b0 N
b1111 '
b1111 i
b1111 9
b1111 E
b10111 1
b10111 D
0:
b0 3
b0 <
b0 L
b10111 [
b10111 >
b10111 (
b10111 @
b10111 \
b10111 d
b111 8
b111 b
b1101 7
b1101 a
b111100 "
b111100 4
b11101101010000000100011 -
b11101101010000000100011 ?
b11101101010000000100011 O
b11101101010000000100011 S
b11101101010000000100011 V
b11101101010000000100011 Y
b11101101010000000100011 h
b111000 #
b111000 2
b111000 ;
b111000 R
b11000 6
b11000 `
b0 ,
b0 Q
b1 *
b1 ^
b0 Z
b0 M
b0 =
b0 )
b0 A
b0 P
b0 ]
b0 c
1$
#180000
0$
#185000
b1000 N
b1000000 .
b1000000 B
b11111 ,
b11111 Q
b10111 +
b10111 X
b101011 *
b101011 ^
b1 '
b1 i
b0 9
b0 E
b1000 3
b1000 <
b1000 L
b10100 [
b10100 >
b10100 (
b10100 @
b10100 \
b10100 d
b11100 8
b11100 b
b10111 Z
b10111 M
b10111 =
b10111 )
b10111 A
b10111 P
b10111 ]
b10111 c
b111 7
b111 a
b10111 /
b10111 F
b10111 U
b1000000 "
b1000000 4
b1110000111000010001100011 -
b1110000111000010001100011 ?
b1110000111000010001100011 O
b1110000111000010001100011 S
b1110000111000010001100011 V
b1110000111000010001100011 Y
b1110000111000010001100011 h
b111100 #
b111100 2
b111100 ;
b111100 R
1$
#190000
0$
#195000
b1100 N
b1001100 .
b1001100 B
b10111000000000000 ,
b10111000000000000 Q
b1011100000000000000000000 *
b1011100000000000000000000 ^
b11 '
b11 i
b1100 3
b1100 <
b1100 L
b1001100 "
b1001100 4
b1110000111001011001100011 -
b1110000111001011001100011 ?
b1110000111001011001100011 O
b1110000111001011001100011 S
b1110000111001011001100011 V
b1110000111001011001100011 Y
b1110000111001011001100011 h
b1000000 #
b1000000 2
b1000000 ;
b1000000 R
1$
#200000
0$
#205000
b1 N
b1001101 .
b1001101 B
b1 ,
b1 Q
b0 *
b0 ^
b1 '
b1 i
b1 6
b1 `
1:
b1 3
b1 <
b1 L
b0 [
b0 >
b0 (
b0 @
b0 \
b0 d
b0 8
b0 b
b0 Z
b0 M
b0 =
b0 )
b0 A
b0 P
b0 ]
b0 c
b0 7
b0 a
b1111 5
b1111 _
b1010000 "
b1010000 4
b100000000011110010011 -
b100000000011110010011 ?
b100000000011110010011 O
b100000000011110010011 S
b100000000011110010011 V
b100000000011110010011 Y
b100000000011110010011 h
b1001100 #
b1001100 2
b1001100 ;
b1001100 R
1$
#210000
0$
#215000
b0 N
b1010000 .
b1010000 B
b0 ,
b0 Q
b1010100 6
b1010100 `
b0 3
b0 <
b0 L
b0 5
b0 _
b1010000 "
b1010000 4
b1101111 -
b1101111 ?
b1101111 O
b1101111 S
b1101111 V
b1101111 Y
b1101111 h
b1010000 #
b1010000 2
b1010000 ;
b1010000 R
1$
